%!PS-Adobe-3.0 EPSF-3.0
%Produced by poppler pdftops version: 0.59.0 (http://poppler.freedesktop.org)
%%Creator: Chromium
%%LanguageLevel: 3
%%DocumentSuppliedResources: (atend)
%%BoundingBox: 0 0 2380 957
%%HiResBoundingBox: 0 0 2379.1199 956.88
%%DocumentSuppliedResources: (atend)
%%EndComments
%%BeginProlog
%%BeginResource: procset xpdf 3.00 0
%%Copyright: Copyright 1996-2011 Glyph & Cog, LLC
/xpdf 75 dict def xpdf begin
% PDF special state
/pdfDictSize 15 def
/pdfSetup {
  /setpagedevice where {
    pop 2 dict begin
      /Policies 1 dict dup begin /PageSize 6 def end def
      { /Duplex true def } if
    currentdict end setpagedevice
  } {
    pop
  } ifelse
} def
/pdfSetupPaper {
  % Change paper size, but only if different from previous paper size otherwise
  % duplex fails. PLRM specifies a tolerance of 5 pts when matching paper size
  % so we use the same when checking if the size changes.
  /setpagedevice where {
    pop currentpagedevice
    /PageSize known {
      2 copy
      currentpagedevice /PageSize get aload pop
      exch 4 1 roll
      sub abs 5 gt
      3 1 roll
      sub abs 5 gt
      or
    } {
      true
    } ifelse
    {
      2 array astore
      2 dict begin
        /PageSize exch def
        /ImagingBBox null def
      currentdict end
      setpagedevice
    } {
      pop pop
    } ifelse
  } {
    pop
  } ifelse
} def
/pdfStartPage {
  pdfDictSize dict begin
  /pdfFillCS [] def
  /pdfFillXform {} def
  /pdfStrokeCS [] def
  /pdfStrokeXform {} def
  /pdfFill [0] def
  /pdfStroke [0] def
  /pdfFillOP false def
  /pdfStrokeOP false def
  /pdfOPM false def
  /pdfLastFill false def
  /pdfLastStroke false def
  /pdfTextMat [1 0 0 1 0 0] def
  /pdfFontSize 0 def
  /pdfCharSpacing 0 def
  /pdfTextRender 0 def
  /pdfPatternCS false def
  /pdfTextRise 0 def
  /pdfWordSpacing 0 def
  /pdfHorizScaling 1 def
  /pdfTextClipPath [] def
} def
/pdfEndPage { end } def
% PDF color state
/opm { dup /pdfOPM exch def
      /setoverprintmode where{pop setoverprintmode}{pop}ifelse  } def
/cs { /pdfFillXform exch def dup /pdfFillCS exch def
      setcolorspace } def
/CS { /pdfStrokeXform exch def dup /pdfStrokeCS exch def
      setcolorspace } def
/sc { pdfLastFill not { pdfFillCS setcolorspace } if
      dup /pdfFill exch def aload pop pdfFillXform setcolor
     /pdfLastFill true def /pdfLastStroke false def } def
/SC { pdfLastStroke not { pdfStrokeCS setcolorspace } if
      dup /pdfStroke exch def aload pop pdfStrokeXform setcolor
     /pdfLastStroke true def /pdfLastFill false def } def
/op { /pdfFillOP exch def
      pdfLastFill { pdfFillOP setoverprint } if } def
/OP { /pdfStrokeOP exch def
      pdfLastStroke { pdfStrokeOP setoverprint } if } def
/fCol {
  pdfLastFill not {
    pdfFillCS setcolorspace
    pdfFill aload pop pdfFillXform setcolor
    pdfFillOP setoverprint
    /pdfLastFill true def /pdfLastStroke false def
  } if
} def
/sCol {
  pdfLastStroke not {
    pdfStrokeCS setcolorspace
    pdfStroke aload pop pdfStrokeXform setcolor
    pdfStrokeOP setoverprint
    /pdfLastStroke true def /pdfLastFill false def
  } if
} def
% build a font
/pdfMakeFont {
  4 3 roll findfont
  4 2 roll matrix scale makefont
  dup length dict begin
    { 1 index /FID ne { def } { pop pop } ifelse } forall
    /Encoding exch def
    currentdict
  end
  definefont pop
} def
/pdfMakeFont16 {
  exch findfont
  dup length dict begin
    { 1 index /FID ne { def } { pop pop } ifelse } forall
    /WMode exch def
    currentdict
  end
  definefont pop
} def
/pdfMakeFont16L3 {
  1 index /CIDFont resourcestatus {
    pop pop 1 index /CIDFont findresource /CIDFontType known
  } {
    false
  } ifelse
  {
    0 eq { /Identity-H } { /Identity-V } ifelse
    exch 1 array astore composefont pop
  } {
    pdfMakeFont16
  } ifelse
} def
% graphics state operators
/q { gsave pdfDictSize dict begin } def
/Q {
  end grestore
  /pdfLastFill where {
    pop
    pdfLastFill {
      pdfFillOP setoverprint
    } {
      pdfStrokeOP setoverprint
    } ifelse
  } if
  /pdfOPM where {
    pop
    pdfOPM /setoverprintmode where{pop setoverprintmode}{pop}ifelse 
  } if
} def
/cm { concat } def
/d { setdash } def
/i { setflat } def
/j { setlinejoin } def
/J { setlinecap } def
/M { setmiterlimit } def
/w { setlinewidth } def
% path segment operators
/m { moveto } def
/l { lineto } def
/c { curveto } def
/re { 4 2 roll moveto 1 index 0 rlineto 0 exch rlineto
      neg 0 rlineto closepath } def
/h { closepath } def
% path painting operators
/S { sCol stroke } def
/Sf { fCol stroke } def
/f { fCol fill } def
/f* { fCol eofill } def
% clipping operators
/W { clip newpath } def
/W* { eoclip newpath } def
/Ws { strokepath clip newpath } def
% text state operators
/Tc { /pdfCharSpacing exch def } def
/Tf { dup /pdfFontSize exch def
      dup pdfHorizScaling mul exch matrix scale
      pdfTextMat matrix concatmatrix dup 4 0 put dup 5 0 put
      exch findfont exch makefont setfont } def
/Tr { /pdfTextRender exch def } def
/Tp { /pdfPatternCS exch def } def
/Ts { /pdfTextRise exch def } def
/Tw { /pdfWordSpacing exch def } def
/Tz { /pdfHorizScaling exch def } def
% text positioning operators
/Td { pdfTextMat transform moveto } def
/Tm { /pdfTextMat exch def } def
% text string operators
/xyshow where {
  pop
  /xyshow2 {
    dup length array
    0 2 2 index length 1 sub {
      2 index 1 index 2 copy get 3 1 roll 1 add get
      pdfTextMat dtransform
      4 2 roll 2 copy 6 5 roll put 1 add 3 1 roll dup 4 2 roll put
    } for
    exch pop
    xyshow
  } def
}{
  /xyshow2 {
    currentfont /FontType get 0 eq {
      0 2 3 index length 1 sub {
        currentpoint 4 index 3 index 2 getinterval show moveto
        2 copy get 2 index 3 2 roll 1 add get
        pdfTextMat dtransform rmoveto
      } for
    } {
      0 1 3 index length 1 sub {
        currentpoint 4 index 3 index 1 getinterval show moveto
        2 copy 2 mul get 2 index 3 2 roll 2 mul 1 add get
        pdfTextMat dtransform rmoveto
      } for
    } ifelse
    pop pop
  } def
} ifelse
/cshow where {
  pop
  /xycp {
    0 3 2 roll
    {
      pop pop currentpoint 3 2 roll
      1 string dup 0 4 3 roll put false charpath moveto
      2 copy get 2 index 2 index 1 add get
      pdfTextMat dtransform rmoveto
      2 add
    } exch cshow
    pop pop
  } def
}{
  /xycp {
    currentfont /FontType get 0 eq {
      0 2 3 index length 1 sub {
        currentpoint 4 index 3 index 2 getinterval false charpath moveto
        2 copy get 2 index 3 2 roll 1 add get
        pdfTextMat dtransform rmoveto
      } for
    } {
      0 1 3 index length 1 sub {
        currentpoint 4 index 3 index 1 getinterval false charpath moveto
        2 copy 2 mul get 2 index 3 2 roll 2 mul 1 add get
        pdfTextMat dtransform rmoveto
      } for
    } ifelse
    pop pop
  } def
} ifelse
/Tj {
  fCol
  0 pdfTextRise pdfTextMat dtransform rmoveto
  currentpoint 4 2 roll
  pdfTextRender 1 and 0 eq {
    2 copy xyshow2
  } if
  pdfTextRender 3 and dup 1 eq exch 2 eq or {
    3 index 3 index moveto
    2 copy
    currentfont /FontType get 3 eq { fCol } { sCol } ifelse
    xycp currentpoint stroke moveto
  } if
  pdfTextRender 4 and 0 ne {
    4 2 roll moveto xycp
    /pdfTextClipPath [ pdfTextClipPath aload pop
      {/moveto cvx}
      {/lineto cvx}
      {/curveto cvx}
      {/closepath cvx}
    pathforall ] def
    currentpoint newpath moveto
  } {
    pop pop pop pop
  } ifelse
  0 pdfTextRise neg pdfTextMat dtransform rmoveto
} def
/TJm { 0.001 mul pdfFontSize mul pdfHorizScaling mul neg 0
       pdfTextMat dtransform rmoveto } def
/TJmV { 0.001 mul pdfFontSize mul neg 0 exch
        pdfTextMat dtransform rmoveto } def
/Tclip { pdfTextClipPath cvx exec clip newpath
         /pdfTextClipPath [] def } def
/Tclip* { pdfTextClipPath cvx exec eoclip newpath
         /pdfTextClipPath [] def } def
% Level 2/3 image operators
/pdfImBuf 100 string def
/pdfImStr {
  2 copy exch length lt {
    2 copy get exch 1 add exch
  } {
    ()
  } ifelse
} def
/skipEOD {
  { currentfile pdfImBuf readline
    not { pop exit } if
    (%-EOD-) eq { exit } if } loop
} def
/pdfIm { image skipEOD } def
/pdfMask {
  /ReusableStreamDecode filter
  skipEOD
  /maskStream exch def
} def
/pdfMaskEnd { maskStream closefile } def
/pdfMaskInit {
  /maskArray exch def
  /maskIdx 0 def
} def
/pdfMaskSrc {
  maskIdx maskArray length lt {
    maskArray maskIdx get
    /maskIdx maskIdx 1 add def
  } {
    ()
  } ifelse
} def
/pdfImM { fCol imagemask skipEOD } def
/pr { 2 index 2 index 3 2 roll putinterval 4 add } def
/pdfImClip {
  gsave
  0 2 4 index length 1 sub {
    dup 4 index exch 2 copy
    get 5 index div put
    1 add 3 index exch 2 copy
    get 3 index div put
  } for
  pop pop rectclip
} def
/pdfImClipEnd { grestore } def
% shading operators
/colordelta {
  false 0 1 3 index length 1 sub {
    dup 4 index exch get 3 index 3 2 roll get sub abs 0.004 gt {
      pop true
    } if
  } for
  exch pop exch pop
} def
/funcCol { func n array astore } def
/funcSH {
  dup 0 eq {
    true
  } {
    dup 6 eq {
      false
    } {
      4 index 4 index funcCol dup
      6 index 4 index funcCol dup
      3 1 roll colordelta 3 1 roll
      5 index 5 index funcCol dup
      3 1 roll colordelta 3 1 roll
      6 index 8 index funcCol dup
      3 1 roll colordelta 3 1 roll
      colordelta or or or
    } ifelse
  } ifelse
  {
    1 add
    4 index 3 index add 0.5 mul exch 4 index 3 index add 0.5 mul exch
    6 index 6 index 4 index 4 index 4 index funcSH
    2 index 6 index 6 index 4 index 4 index funcSH
    6 index 2 index 4 index 6 index 4 index funcSH
    5 3 roll 3 2 roll funcSH pop pop
  } {
    pop 3 index 2 index add 0.5 mul 3 index  2 index add 0.5 mul
    funcCol sc
    dup 4 index exch mat transform m
    3 index 3 index mat transform l
    1 index 3 index mat transform l
    mat transform l pop pop h f*
  } ifelse
} def
/axialCol {
  dup 0 lt {
    pop t0
  } {
    dup 1 gt {
      pop t1
    } {
      dt mul t0 add
    } ifelse
  } ifelse
  func n array astore
} def
/axialSH {
  dup 0 eq {
    true
  } {
    dup 8 eq {
      false
    } {
      2 index axialCol 2 index axialCol colordelta
    } ifelse
  } ifelse
  {
    1 add 3 1 roll 2 copy add 0.5 mul
    dup 4 3 roll exch 4 index axialSH
    exch 3 2 roll axialSH
  } {
    pop 2 copy add 0.5 mul
    axialCol sc
    exch dup dx mul x0 add exch dy mul y0 add
    3 2 roll dup dx mul x0 add exch dy mul y0 add
    dx abs dy abs ge {
      2 copy yMin sub dy mul dx div add yMin m
      yMax sub dy mul dx div add yMax l
      2 copy yMax sub dy mul dx div add yMax l
      yMin sub dy mul dx div add yMin l
      h f*
    } {
      exch 2 copy xMin sub dx mul dy div add xMin exch m
      xMax sub dx mul dy div add xMax exch l
      exch 2 copy xMax sub dx mul dy div add xMax exch l
      xMin sub dx mul dy div add xMin exch l
      h f*
    } ifelse
  } ifelse
} def
/radialCol {
  dup t0 lt {
    pop t0
  } {
    dup t1 gt {
      pop t1
    } if
  } ifelse
  func n array astore
} def
/radialSH {
  dup 0 eq {
    true
  } {
    dup 8 eq {
      false
    } {
      2 index dt mul t0 add radialCol
      2 index dt mul t0 add radialCol colordelta
    } ifelse
  } ifelse
  {
    1 add 3 1 roll 2 copy add 0.5 mul
    dup 4 3 roll exch 4 index radialSH
    exch 3 2 roll radialSH
  } {
    pop 2 copy add 0.5 mul dt mul t0 add
    radialCol sc
    encl {
      exch dup dx mul x0 add exch dup dy mul y0 add exch dr mul r0 add
      0 360 arc h
      dup dx mul x0 add exch dup dy mul y0 add exch dr mul r0 add
      360 0 arcn h f
    } {
      2 copy
      dup dx mul x0 add exch dup dy mul y0 add exch dr mul r0 add
      a1 a2 arcn
      dup dx mul x0 add exch dup dy mul y0 add exch dr mul r0 add
      a2 a1 arcn h
      dup dx mul x0 add exch dup dy mul y0 add exch dr mul r0 add
      a1 a2 arc
      dup dx mul x0 add exch dup dy mul y0 add exch dr mul r0 add
      a2 a1 arc h f
    } ifelse
  } ifelse
} def
end
%%EndResource
/CIDInit /ProcSet findresource begin
10 dict begin
  begincmap
  /CMapType 1 def
  /CMapName /Identity-H def
  /CIDSystemInfo 3 dict dup begin
    /Registry (Adobe) def
    /Ordering (Identity) def
    /Supplement 0 def
  end def
  1 begincodespacerange
    <0000> <ffff>
  endcodespacerange
  0 usefont
  1 begincidrange
    <0000> <ffff> 0
  endcidrange
  endcmap
  currentdict CMapName exch /CMap defineresource pop
end
10 dict begin
  begincmap
  /CMapType 1 def
  /CMapName /Identity-V def
  /CIDSystemInfo 3 dict dup begin
    /Registry (Adobe) def
    /Ordering (Identity) def
    /Supplement 0 def
  end def
  /WMode 1 def
  1 begincodespacerange
    <0000> <ffff>
  endcodespacerange
  0 usefont
  1 begincidrange
    <0000> <ffff> 0
  endcidrange
  endcmap
  currentdict CMapName exch /CMap defineresource pop
end
end
%%EndProlog
%%BeginSetup
xpdf begin
%%EndSetup
pdfStartPage
%%EndPageSetup
[] 0 d
1 i
0 j
0 J
10 M
1 w
/DeviceGray {} cs
[0] sc
/DeviceGray {} CS
[0] SC
false op
false OP
{} settransfer
0 0 2379.1199 956.88 re
W
q
[0.24 0 0 -0.24 0 956.88] cm
q
0 0 9912.5 3987.5 re
W*
q
[34.511929 0 0 34.518044 269.36139 269.41043] cm
/DeviceRGB {} CS
[0 0.749 0.651] SC
/DeviceRGB {} cs
[0 0.749 0.651] sc
100 50 m
100 50.818287 99.979919 51.636082 99.939766 52.453384 c
99.899612 53.270687 99.839439 54.086514 99.759232 54.90086 c
99.679024 55.715202 99.578888 56.527088 99.458824 57.336517 c
99.33876 58.145947 99.198906 58.951946 99.039261 59.754509 c
98.879616 60.557072 98.700386 61.355236 98.501556 62.149002 c
98.302734 62.942768 98.084557 63.731174 97.847015 64.514229 c
97.609474 65.297279 97.352867 66.074028 97.077194 66.844475 c
96.801521 67.614929 96.507111 68.378159 96.193962 69.134155 c
95.880814 69.89016 95.549316 70.638023 95.199455 71.377747 c
94.849594 72.11747 94.481796 72.848167 94.096062 73.569824 c
93.710327 74.291489 93.307114 75.003258 92.886429 75.705124 c
92.465736 76.40699 92.028084 77.098114 91.573471 77.778496 c
91.118858 78.458878 90.64782 79.127701 90.160362 79.784958 c
89.672913 80.442215 89.169632 81.087112 88.65052 81.719658 c
88.131401 82.352203 87.597076 82.971626 87.047554 83.577934 c
86.498016 84.18425 85.933945 84.776711 85.355331 85.355331 c
84.776711 85.933945 84.18425 86.498016 83.577934 87.047546 c
82.971626 87.597076 82.352203 88.131401 81.719658 88.65052 c
81.087112 89.169632 80.442215 89.672913 79.784958 90.160362 c
79.127701 90.64782 78.458878 91.118858 77.778496 91.573471 c
77.098114 92.028084 76.40699 92.465736 75.705124 92.886429 c
75.003258 93.307114 74.291489 93.710327 73.569824 94.096062 c
72.848167 94.481796 72.11747 94.849594 71.377747 95.199455 c
70.638023 95.549316 69.89016 95.880814 69.134155 96.193962 c
68.378159 96.507111 67.614929 96.801521 66.844475 97.077194 c
66.074028 97.352867 65.297279 97.609474 64.514229 97.847008 c
63.731174 98.084541 62.942768 98.302719 62.149002 98.501549 c
61.355236 98.700378 60.557072 98.879616 59.754509 99.039253 c
58.951946 99.198891 58.145947 99.338745 57.336517 99.458809 c
56.527088 99.57888 55.715199 99.679024 54.900856 99.759232 c
54.086514 99.839439 53.270687 99.899612 52.453384 99.939766 c
51.636082 99.979919 50.818287 100 50 100 c
49.181713 100 48.363918 99.979919 47.546616 99.939766 c
46.729313 99.899612 45.91349 99.839439 45.099144 99.759232 c
44.284794 99.679024 43.472904 99.578888 42.663471 99.458824 c
41.854042 99.33876 41.048046 99.198906 40.245483 99.039261 c
39.442921 98.879616 38.644756 98.700386 37.85099 98.501556 c
37.057224 98.302734 36.268818 98.084557 35.485764 97.847015 c
34.702709 97.609474 33.925957 97.352867 33.155502 97.077194 c
32.385052 96.801521 31.621826 96.507111 30.865828 96.193962 c
30.109829 95.880814 29.361967 95.549316 28.622244 95.199455 c
27.882521 94.849594 27.151827 94.481796 26.430164 94.096062 c
25.708498 93.710327 24.996731 93.307114 24.294863 92.886429 c
23.592995 92.465736 22.901869 92.028084 22.221487 91.573471 c
21.541105 91.118858 20.872288 90.64782 20.215033 90.160362 c
19.557779 89.672913 18.91288 89.169632 18.280336 88.65052 c
17.647791 88.131401 17.028362 87.597076 16.422052 87.047554 c
15.815741 86.498016 15.223276 85.933945 14.64466 85.355331 c
14.066044 84.776711 13.501971 84.18425 12.952443 83.577934 c
12.402916 82.971626 11.868594 82.352203 11.349478 81.719658 c
10.830361 81.087112 10.327076 80.442215 9.839624 79.784958 c
9.352169 79.127701 8.881134 78.458878 8.426518 77.778496 c
7.971902 77.098114 7.534252 76.40699 7.113569 75.705124 c
6.692885 75.003258 6.289674 74.291489 5.903936 73.569824 c
5.518199 72.848167 5.150398 72.11747 4.800535 71.377747 c
4.450672 70.638023 4.119168 69.89016 3.806023 69.134155 c
3.492878 68.378159 3.198469 67.614929 2.922797 66.844475 c
2.647124 66.074028 2.390519 65.297279 2.152983 64.514229 c
1.915447 63.731174 1.697265 62.942768 1.498437 62.149002 c
1.29961 61.355236 1.120376 60.557072 0.960736 59.754509 c
0.801096 58.951946 0.661242 58.145947 0.541174 57.336517 c
0.421107 56.527088 0.32097 55.715199 0.240764 54.900856 c
0.160557 54.086514 0.100379 53.270687 0.060227 52.453384 c
0.020076 51.636082 0 50.818287 0 50 c
0 49.181713 0.020076 48.363918 0.060227 47.546616 c
0.100379 46.729313 0.160557 45.91349 0.240764 45.099144 c
0.32097 44.284794 0.421107 43.472904 0.541174 42.663471 c
0.661242 41.854042 0.801096 41.048046 0.960736 40.245483 c
1.120376 39.442921 1.29961 38.644756 1.498437 37.85099 c
1.697265 37.057224 1.915447 36.268818 2.152983 35.485764 c
2.390519 34.702709 2.647124 33.925957 2.922796 33.155502 c
3.198469 32.385052 3.492878 31.621826 3.806023 30.865828 c
4.119168 30.109829 4.450672 29.361967 4.800535 28.622244 c
5.150398 27.882521 5.518199 27.151827 5.903936 26.430164 c
6.289674 25.708498 6.692885 24.996731 7.113568 24.294863 c
7.534252 23.592995 7.971902 22.901869 8.426518 22.221487 c
8.881134 21.541105 9.352169 20.872288 9.839623 20.215033 c
10.327076 19.557779 10.830361 18.91288 11.349478 18.280336 c
11.868594 17.647791 12.402916 17.028362 12.952443 16.422052 c
13.501971 15.815741 14.066044 15.223276 14.64466 14.64466 c
15.223276 14.066044 15.815741 13.501971 16.422052 12.952443 c
17.028362 12.402916 17.647789 11.868594 18.280334 11.349478 c
18.91288 10.830361 19.557779 10.327076 20.215033 9.839624 c
20.872286 9.352169 21.541103 8.881134 22.221485 8.426518 c
22.901867 7.971902 23.592991 7.534252 24.294859 7.113569 c
24.996727 6.692885 25.708496 6.289674 26.430162 5.903936 c
27.151827 5.518199 27.882519 5.150398 28.62224 4.800535 c
29.361965 4.450672 30.109825 4.119168 30.865824 3.806023 c
31.621822 3.492878 32.385048 3.198469 33.155499 2.922797 c
33.925957 2.647124 34.702709 2.390519 35.48576 2.152983 c
36.268814 1.915447 37.057224 1.697265 37.85099 1.498437 c
38.644753 1.29961 39.442917 1.120376 40.24548 0.960736 c
41.048042 0.801096 41.854042 0.661242 42.663471 0.541174 c
43.472904 0.421107 44.284794 0.32097 45.099144 0.240764 c
45.91349 0.160557 46.729313 0.100379 47.546616 0.060227 c
48.363918 0.020076 49.181713 0 50 0 c
50.818287 0 51.636082 0.020076 52.453384 0.060227 c
53.270687 0.100379 54.086514 0.160557 54.90086 0.240764 c
55.715202 0.32097 56.527088 0.421107 57.336517 0.541174 c
58.145947 0.661242 58.951946 0.801096 59.754509 0.960736 c
60.557072 1.120376 61.355236 1.29961 62.149002 1.498437 c
62.942768 1.697265 63.731174 1.915447 64.514229 2.152983 c
65.297279 2.390519 66.074028 2.647124 66.844475 2.922796 c
67.614929 3.198469 68.378159 3.492878 69.134155 3.806023 c
69.89016 4.119168 70.638023 4.450672 71.377747 4.800535 c
72.11747 5.150398 72.848167 5.518199 73.569824 5.903936 c
74.291489 6.289674 75.003258 6.692885 75.705124 7.113568 c
76.40699 7.534252 77.098114 7.971902 77.778496 8.426518 c
78.458878 8.881134 79.127701 9.352169 79.784958 9.839623 c
80.442215 10.327076 81.087112 10.830361 81.719658 11.349478 c
82.352203 11.868594 82.971626 12.402916 83.577934 12.952443 c
84.18425 13.501971 84.776711 14.066044 85.355331 14.64466 c
85.933945 15.223276 86.498016 15.815741 87.047546 16.422052 c
87.597076 17.028362 88.131401 17.647789 88.65052 18.280334 c
89.169632 18.91288 89.672913 19.557779 90.160362 20.215033 c
90.64782 20.872286 91.118858 21.541103 91.573471 22.221485 c
92.028084 22.901867 92.465736 23.592991 92.886429 24.294859 c
93.307114 24.996727 93.710327 25.708496 94.096062 26.430162 c
94.481796 27.151827 94.849594 27.882519 95.199455 28.62224 c
95.549316 29.361965 95.880814 30.109825 96.193962 30.865824 c
96.507111 31.621822 96.801521 32.385048 97.077194 33.155499 c
97.352867 33.925957 97.609474 34.702709 97.847008 35.48576 c
98.084541 36.268814 98.302719 37.057224 98.501549 37.85099 c
98.700378 38.644753 98.879616 39.442917 99.039253 40.24548 c
99.198891 41.048042 99.338745 41.854042 99.458809 42.663471 c
99.57888 43.472904 99.679024 44.284794 99.759232 45.099144 c
99.839439 45.91349 99.899612 46.729313 99.939766 47.546616 c
99.979919 48.363918 100 49.181713 100 50 c
h
f
Q
q
[52.46328 0 0 52.472569 1034.77063 -58.603043] cm
/DeviceRGB {} CS
[0.6392 0.8941 0.8314] SC
/DeviceRGB {} cs
[0.6392 0.8941 0.8314] sc
21.24 60 m
17.52 60 14.04 59.040001 10.86 57.119999 c
4.38 53.34 0.299999 46.199997 0.299999 39.059998 c
0.299999 35.339996 1.259999 31.799997 3.179999 28.499996 c
7.02 21.839996 13.619999 18.059998 21.239998 18.059998 c
26.459997 18.059998 31.499998 20.039997 35.339996 23.579998 c
35.459995 23.639997 35.639996 23.759998 35.819996 23.939999 c
36.239994 24.419998 l
34.739994 25.979998 l
33.899994 25.139997 l
30.479994 21.959997 25.979994 20.219997 21.239994 20.219997 c
17.879993 20.219997 14.759995 21.059998 11.879994 22.739998 c
6.059994 26.099998 2.459994 32.339996 2.459994 39.059998 c
2.459994 42.419998 3.299995 45.539997 4.979994 48.419998 c
8.339994 54.239998 14.519995 57.839996 21.239994 57.839996 c
25.319994 57.839996 28.439995 56.699997 33.539993 53.399998 c
33.539993 39.599998 l
20.399994 39.599998 l
20.399994 37.439999 l
35.639992 37.439999 l
35.639992 54.540001 l
35.219994 54.900002 l
29.879993 58.560001 26.039993 60 21.239994 60 c
21.24 60 l
h
21.24 55.919998 m
18.24 55.919998 15.42 55.139999 12.84 53.639999 c
7.56 50.579998 4.32 45.059998 4.32 39.059998 c
4.32 35.999996 5.099999 33.119999 6.599999 30.479998 c
9.66 25.259998 15.06 22.139997 21.24 22.139997 c
24.66 22.139997 27.959999 23.219997 31.139999 25.319998 c
32.700001 26.519999 l
33.48 27.299999 l
29.16 31.98 l
27.24 30.48 l
25.5 29.219999 23.459999 28.559999 21.24 28.559999 c
19.440001 28.559999 17.700001 29.039999 16.08 29.939999 c
12.78 31.859999 10.799999 35.219997 10.799999 39.059998 c
10.799999 40.859997 11.279999 42.599998 12.24 44.219997 c
14.099999 47.519997 17.459999 49.499996 21.24 49.499996 c
22.74 49.499996 24.119999 49.199997 25.379999 48.539997 c
25.379999 47.579998 l
20.4 47.579998 l
20.4 41.459999 l
31.619999 41.459999 l
31.619999 52.139999 l
30.24 53.220001 l
27.539999 55.080002 24.779999 55.920002 21.24 55.920002 c
21.24 55.919998 l
h
21.24 24.299999 m
18.6 24.299999 16.139999 24.959999 13.86 26.279999 c
9.299999 28.919998 6.48 33.779999 6.48 39.059998 c
6.48 41.699997 7.139999 44.159996 8.459999 46.379997 c
11.099999 50.939999 15.959999 53.759998 21.239998 53.759998 c
24.179998 53.759998 26.819998 52.98 29.039997 51.48 c
29.459997 51.119999 l
29.459997 43.619999 l
22.559998 43.619999 l
22.559998 45.419998 l
27.539997 45.419998 l
27.539997 49.919998 l
26.939997 50.219997 l
24.959997 51.179996 23.099997 51.659996 21.239998 51.659996 c
19.079998 51.659996 16.979998 51.059998 14.999998 49.919994 c
10.979998 47.579994 8.639998 43.679993 8.639998 39.059994 c
8.639998 36.779995 9.179997 34.679993 10.319998 32.699993 c
12.539998 28.859993 16.619999 26.459993 21.239998 26.459993 c
23.819998 26.459993 26.279999 27.239994 28.499998 28.739994 c
28.919998 29.039993 l
30.359999 27.479994 l
29.879999 27.119993 l
27.299999 25.259993 24.419998 24.299994 21.239998 24.299994 c
21.24 24.299999 l
h
f
Q
q
[29.227581 0 0 29.232758 4211.4844 689.33313] cm
/DeviceRGB {} CS
[0.0667 0.0667 0.0667] SC
/DeviceRGB {} cs
[0.0667 0.0667 0.0667] sc
10.4 18.76 m
13.2533 18.76 15.3068 19.8666 16.56 22.08 c
16.639999 22.08 l
16.639999 19.32 l
22.039999 19.32 l
22.039999 38.720001 l
22.039999 41.706703 21.113319 43.973202 19.259998 45.52 c
17.406677 47.066799 14.773198 47.84 11.359999 47.84 c
8.746698 47.84 6.593199 47.213322 4.899999 45.959999 c
3.206799 44.706676 2.306699 43.119999 2.199999 41.199997 c
7.839998 41.199997 l
8.293318 43.093296 9.706598 44.039997 12.079998 44.039997 c
13.546698 44.039997 14.673398 43.606678 15.459998 42.739998 c
16.246597 41.873318 16.639998 40.639999 16.639998 39.039997 c
16.639998 36.199997 l
16.559998 36.199997 l
15.999997 37.213295 15.179997 37.999996 14.099998 38.559998 c
13.019998 39.119999 11.773297 39.399998 10.359998 39.399998 c
7.586698 39.399998 5.419998 38.493317 3.859998 36.679996 c
2.299998 34.866676 1.519998 32.306797 1.519998 28.999996 c
1.519998 26.066696 2.339998 23.626797 3.979998 21.679996 c
5.619998 19.733196 7.759998 18.759996 10.399998 18.759996 c
10.4 18.76 l
h
7.2 28.92 m
7.2 30.866699 7.60672 32.3866 8.42 33.48 c
9.23328 34.573399 10.360001 35.119999 11.8 35.119999 c
13.266701 35.119999 14.440001 34.593319 15.32 33.540001 c
16.199999 32.486683 16.639999 31.093401 16.639999 29.360001 c
16.639999 27.280001 16.219999 25.706701 15.379999 24.640001 c
14.539999 23.573301 13.3333 23.040001 11.759999 23.040001 c
10.293299 23.040001 9.166599 23.593321 8.379999 24.700001 c
7.593399 25.806681 7.199999 27.213402 7.199999 28.92 c
7.2 28.92 l
h
36.639999 18.76 m
39.946701 18.76 42.559998 19.766701 44.48 21.780001 c
46.400002 23.793301 47.360001 26.4268 47.360001 29.68 c
47.360001 32.959999 46.380001 35.593201 44.420002 37.580002 c
42.460003 39.566803 39.866802 40.560001 36.640003 40.560001 c
33.360004 40.560001 30.760002 39.553303 28.840004 37.540001 c
26.920006 35.526699 25.960003 32.906799 25.960003 29.68 c
25.960003 26.346701 26.940002 23.693199 28.900003 21.720001 c
30.860004 19.746803 33.440002 18.760002 36.640003 18.760002 c
36.639999 18.76 l
h
31.639999 29.68 m
31.639999 31.786701 32.066681 33.4133 32.919998 34.560001 c
33.773315 35.706703 35.013298 36.280003 36.639999 36.280003 c
38.32 36.280003 39.579998 35.693321 40.419998 34.520004 c
41.259998 33.346687 41.679996 31.733404 41.679996 29.680004 c
41.679996 27.546703 41.246677 25.906704 40.379997 24.760004 c
39.513317 23.613304 38.253296 23.040005 36.599998 23.040005 c
35 23.040005 33.7733 23.613325 32.919998 24.760004 c
32.066696 25.906683 31.639997 27.546703 31.639997 29.680004 c
31.639999 29.68 l
h
67.839996 11.44 m
67.840034 21.84 l
67.920036 21.84 l
68.533356 20.906679 69.406639 20.16 70.540039 19.6 c
71.673439 19.040001 72.973343 18.76 74.440041 18.76 c
76.973343 18.76 79.033241 19.7733 80.620041 21.799999 c
82.206841 23.826698 83.000038 26.439999 83.000038 29.639999 c
83.000038 32.866699 82.213356 35.493198 80.640038 37.52 c
79.066719 39.546803 76.98674 40.560001 74.40004 40.560001 c
71.040039 40.560001 68.786842 39.493301 67.640038 37.360001 c
67.560036 37.360001 l
67.560036 40 l
62.160034 40 l
62.160034 11.440001 l
67.840034 11.440001 l
67.839996 11.44 l
h
67.639999 29.68 m
67.639999 31.68 68.079956 33.279999 68.959999 34.48 c
69.840042 35.68 71.013298 36.279999 72.479996 36.279999 c
73.919998 36.279999 75.086693 35.693317 75.979996 34.52 c
76.873299 33.346684 77.319992 31.7334 77.319992 29.68 c
77.319992 27.653301 76.886673 26.040001 76.019989 24.84 c
75.153305 23.639999 73.959991 23.040001 72.439987 23.040001 c
70.946686 23.040001 69.773384 23.65332 68.919991 24.880001 c
68.066597 26.106682 67.639992 27.706701 67.639992 29.68 c
67.639999 29.68 l
h
96.120003 18.76 m
102.146805 18.78668 105.160004 20.746601 105.160004 24.639999 c
105.160004 35.599998 l
105.160004 37.626698 105.400002 39.093399 105.880005 40 c
100.120003 40 l
99.906685 39.360001 99.773361 38.693298 99.720039 38 c
98.040039 39.706699 95.720039 40.560001 92.76004 40.560001 c
90.600037 40.560001 88.886742 40.013321 87.620041 38.920002 c
86.35334 37.826683 85.720039 36.306702 85.720039 34.360001 c
85.720039 32.466702 86.320038 31 87.520042 29.960001 c
88.746742 28.866701 90.973442 28.173401 94.200043 27.880001 c
96.49334 27.640001 97.94664 27.34 98.560043 26.980001 c
99.173447 26.620003 99.480042 26.066681 99.480042 25.320002 c
99.480042 24.386681 99.200043 23.693401 98.640045 23.240002 c
98.080048 22.786602 97.146744 22.560001 95.840042 22.560001 c
94.640045 22.560001 93.733345 22.806681 93.120041 23.300001 c
92.506737 23.793322 92.146721 24.586601 92.040039 25.68 c
86.360039 25.68 l
86.493362 23.4133 87.426636 21.6933 89.160042 20.52 c
90.893448 19.346701 93.213242 18.76 96.120041 18.76 c
96.120003 18.76 l
h
91.400002 34.119999 m
91.400002 35.879997 92.560005 36.759998 94.880005 36.759998 c
97.920006 36.733318 99.453201 35.173298 99.480003 32.079998 c
99.480003 29.879997 l
99.02668 30.333317 97.880005 30.666637 96.040001 30.879957 c
94.440002 31.066637 93.266701 31.393318 92.520004 31.859997 c
91.773308 32.326675 91.400002 33.079998 91.400002 34.119995 c
91.400002 34.119999 l
h
121.639999 18.76 m
122.120003 18.76 122.533356 18.826681 122.879997 18.960001 c
122.879997 24.240002 l
122.266678 24.106682 121.5867 24.040001 120.839996 24.040001 c
117.106697 24.040001 115.239998 26.253302 115.239998 30.68 c
115.239998 40 l
109.559998 40 l
109.559998 19.32 l
114.959999 19.32 l
114.959999 23.16 l
115.040001 23.16 l
115.599998 21.8267 116.486702 20.76 117.700005 19.959999 c
118.913307 19.159998 120.226608 18.759998 121.640007 18.759998 c
121.639999 18.76 l
h
130.800003 11.44 m
130.800049 21.84 l
130.880051 21.84 l
131.493378 20.906679 132.366653 20.16 133.500046 19.6 c
134.633438 19.040001 135.93335 18.76 137.40004 18.76 c
139.933334 18.76 141.99324 19.7733 143.580032 21.799999 c
145.166824 23.826698 145.960037 26.439999 145.960037 29.639999 c
145.960037 32.866699 145.173355 35.493198 143.600037 37.52 c
142.026718 39.546803 139.946732 40.560001 137.360031 40.560001 c
134.000031 40.560001 131.746826 39.493301 130.600037 37.360001 c
130.520035 37.360001 l
130.520035 40 l
125.120033 40 l
125.120033 11.440001 l
130.800034 11.440001 l
130.800003 11.44 l
h
130.600006 29.68 m
130.600006 31.68 131.039963 33.279999 131.920013 34.48 c
132.800064 35.68 133.973312 36.279999 135.440018 36.279999 c
136.88002 36.279999 138.046722 35.693317 138.940018 34.52 c
139.833313 33.346684 140.280014 31.7334 140.280014 29.68 c
140.280014 27.653301 139.846695 26.040001 138.980011 24.84 c
138.113327 23.639999 136.920013 23.040001 135.400009 23.040001 c
133.906708 23.040001 132.733414 23.65332 131.880005 24.880001 c
131.026596 26.106682 130.600006 27.706701 130.600006 29.68 c
h
159.119995 18.76 m
161.066696 18.76 162.800095 19.21328 164.319992 20.120001 c
165.83989 21.026722 167.033295 22.34 167.89999 24.060001 c
168.76669 25.780003 169.2 27.760002 169.2 30.000002 c
169.2 30.213322 169.18668 30.560001 169.16 31.040001 c
154.240005 31.040001 l
154.29332 32.693302 154.726639 33.98 155.540009 34.900002 c
156.353378 35.820004 157.600006 36.280003 159.280014 36.280003 c
160.320007 36.280003 161.273315 36.020004 162.140015 35.500004 c
163.006714 34.980003 163.560013 34.346703 163.800018 33.600002 c
168.80002 33.600002 l
167.333313 38.240002 164.106812 40.560001 159.120026 40.560001 c
157.22673 40.533321 155.473419 40.120003 153.860031 39.32 c
152.246643 38.519997 150.960037 37.2733 150.000031 35.579998 c
149.040024 33.886696 148.560028 31.919998 148.560028 29.679998 c
148.560028 27.573299 149.046707 25.653198 150.020035 23.919998 c
150.993362 22.186798 152.286636 20.893398 153.90004 20.039997 c
155.513443 19.186596 157.253342 18.759996 159.120041 18.759996 c
159.119995 18.76 l
h
163.479996 27.440001 m
163.213318 25.893301 162.720001 24.7733 162 24.08 c
161.279999 23.3867 160.253296 23.040001 158.919998 23.040001 c
157.533295 23.040001 156.440002 23.433321 155.639999 24.220001 c
154.839996 25.006681 154.373306 26.080002 154.240005 27.440001 c
163.480011 27.440001 l
163.479996 27.440001 l
h
184.60001 18.76 m
185.08 18.76 185.49336 18.826681 185.84001 18.960001 c
185.84001 24.240002 l
185.22668 24.106682 184.54671 24.040001 183.80002 24.040001 c
180.06671 24.040001 178.20001 26.253302 178.20001 30.68 c
178.20001 40 l
172.52002 40 l
172.52002 19.32 l
177.92001 19.32 l
177.92001 23.16 l
178.00002 23.16 l
178.56001 21.8267 179.44672 20.76 180.66002 19.959999 c
181.87332 19.159998 183.18661 18.759998 184.60002 18.759998 c
184.60001 18.76 l
h
f
Q
q
[35.300369 0 0 35.306622 4235.4351 2141.9067] cm
/DeviceRGB {} CS
[0.549 0.6118 0.6039] SC
/DeviceRGB {} cs
[0.549 0.6118 0.6039] sc
5.32 9.38 m
6.7067 9.38 7.79 9.66002 8.57 10.22002 c
9.349999 10.780021 9.786699 11.60002 9.879999 12.68002 c
7.179999 12.68002 l
7.139999 12.186681 6.96 11.83002 6.639999 11.610021 c
6.319999 11.390021 5.853339 11.280021 5.239999 11.280021 c
4.706659 11.280021 4.31 11.360021 4.049999 11.520021 c
3.789999 11.68002 3.659999 11.92002 3.659999 12.240021 c
3.659999 12.480021 3.746659 12.68002 3.919999 12.840021 c
4.093339 13.000022 4.356679 13.140021 4.710019 13.260021 c
5.063359 13.380021 5.453359 13.480022 5.880019 13.560021 c
7.173319 13.813361 8.086619 14.073361 8.620019 14.340021 c
9.153419 14.606681 9.543359 14.926682 9.790019 15.300021 c
10.036679 15.673361 10.160019 16.133362 10.160019 16.680021 c
10.160019 17.840021 9.736679 18.730021 8.890019 19.350021 c
8.043358 19.970022 6.893318 20.280022 5.440019 20.280022 c
3.920019 20.280022 2.736618 19.953362 1.890019 19.300022 c
1.043419 18.646683 0.606719 17.760021 0.580019 16.640022 c
3.280019 16.640022 l
3.280019 17.173363 3.486679 17.596703 3.900019 17.910023 c
4.313358 18.223343 4.833359 18.380022 5.460019 18.380022 c
5.993359 18.380022 6.436698 18.263363 6.790019 18.030022 c
7.143339 17.79668 7.320019 17.473341 7.320019 17.060001 c
7.320019 16.793341 7.210019 16.573341 6.990019 16.400001 c
6.770019 16.226662 6.460019 16.073322 6.060018 15.939982 c
5.660018 15.806641 5.040019 15.653301 4.200018 15.479961 c
3.533358 15.346622 2.940018 15.166621 2.420018 14.939961 c
1.900019 14.713302 1.503358 14.416641 1.230018 14.049981 c
0.956678 13.683321 0.820018 13.233321 0.820018 12.699981 c
0.820018 12.01998 0.983358 11.426681 1.310018 10.919981 c
1.636678 10.413281 2.136678 10.029981 2.810018 9.769981 c
3.483359 9.509982 4.320019 9.379981 5.320019 9.379981 c
5.32 9.38 l
h
15.42 6.56 m
15.420019 9.66 l
17.500019 9.66 l
17.500019 11.56 l
15.420019 11.56 l
15.420019 16.68 l
15.420019 17.16 15.500019 17.48 15.660019 17.639999 c
15.820019 17.799999 16.140019 17.879999 16.620018 17.879999 c
16.966679 17.879999 17.260017 17.853338 17.500017 17.799999 c
17.500017 20.019999 l
17.100018 20.086658 16.540016 20.119999 15.820017 20.119999 c
14.726717 20.119999 13.913317 19.933338 13.380016 19.559999 c
12.846716 19.186661 12.580016 18.539999 12.580016 17.619999 c
12.580016 11.56 l
10.860016 11.56 l
10.860016 9.66 l
12.580016 9.66 l
12.580016 6.56 l
15.420016 6.56 l
15.42 6.56 l
h
20.700001 9.66 m
23.040001 16.74 l
23.080002 16.74 l
25.340002 9.66 l
28.280003 9.66 l
23.960003 21.299999 l
23.653343 22.113338 23.230003 22.706699 22.690002 23.08 c
22.150002 23.4533 21.400002 23.639999 20.440002 23.639999 c
20.026663 23.639999 19.433302 23.606659 18.660002 23.539999 c
18.660002 21.199999 l
19.166662 21.266659 19.666702 21.299999 20.160002 21.299999 c
20.560001 21.299999 20.870001 21.176659 21.090002 20.929998 c
21.310003 20.683338 21.420002 20.373339 21.420002 19.999998 c
21.420002 19.786657 21.380001 19.573318 21.300001 19.359978 c
17.660002 9.659978 l
20.700001 9.659978 l
20.700001 9.66 l
h
32.16 5.72 m
32.16 20 l
29.32 20 l
29.32 5.72 l
32.16 5.72 l
32.16 5.72 l
h
39.18 9.38 m
40.153339 9.38 41.02 9.60664 41.779999 10.05998 c
42.539997 10.513321 43.1367 11.16998 43.57 12.029981 c
44.0033 12.889981 44.220001 13.879981 44.220001 14.999981 c
44.220001 15.106641 44.213341 15.279981 44.200001 15.519981 c
36.740002 15.519981 l
36.766663 16.346641 36.983322 16.989981 37.38998 17.449982 c
37.796638 17.909983 38.419979 18.139982 39.259979 18.139982 c
39.77998 18.139982 40.256638 18.009983 40.68998 17.749983 c
41.123322 17.489983 41.399979 17.173323 41.519981 16.799982 c
44.019981 16.799982 l
43.28664 19.119982 41.673382 20.279982 39.179981 20.279982 c
38.233322 20.266642 37.356682 20.059982 36.54998 19.659981 c
35.743279 19.259979 35.099979 18.636681 34.61998 17.78998 c
34.13998 16.943279 33.899979 15.95998 33.899979 14.83998 c
33.899979 13.78668 34.143318 12.82658 34.629978 11.95998 c
35.116638 11.09338 35.763279 10.44668 36.569977 10.01998 c
37.376675 9.593279 38.246677 9.379979 39.179977 9.379979 c
39.18 9.38 l
h
41.360001 13.72 m
41.226662 12.94666 40.98 12.386701 40.619999 12.04 c
40.259998 11.693299 39.746658 11.520001 39.079998 11.520001 c
38.386658 11.520001 37.839996 11.716661 37.439999 12.110001 c
37.040001 12.503341 36.80666 13.040001 36.739998 13.72 c
41.359997 13.72 l
41.360001 13.72 l
h
55.52 5.72 m
55.760002 5.72 56.260002 5.74668 57.02 5.80002 c
57.02 7.92002 l
56.64666 7.88002 56.30666 7.86002 56 7.86002 c
55.586658 7.86002 55.299999 7.95002 55.139999 8.13002 c
54.98 8.31002 54.899998 8.62002 54.899998 9.06002 c
54.899998 9.660021 l
56.859997 9.660021 l
56.859997 11.56002 l
54.899998 11.56002 l
54.899998 20.000019 l
52.059998 20.000019 l
52.059998 11.56002 l
50.359997 11.56002 l
50.359997 9.660019 l
52.059998 9.660019 l
52.059998 8.900019 l
52.059998 7.886719 52.363338 7.103319 52.969997 6.550019 c
53.576656 5.996719 54.426697 5.720019 55.519997 5.720019 c
55.52 5.72 l
h
63.119999 9.38 m
64.7733 9.38 66.080002 9.88334 67.040001 10.89 c
68 11.896661 68.480003 13.2134 68.480003 14.84 c
68.480003 16.479999 67.990005 17.7966 67.010002 18.790001 c
66.029999 19.783401 64.733398 20.280001 63.120003 20.280001 c
61.480003 20.280001 60.180004 19.776661 59.220001 18.77 c
58.259998 17.76334 57.780003 16.4534 57.780003 14.84 c
57.780003 13.1733 58.270004 11.8466 59.250004 10.860001 c
60.230003 9.873402 61.520004 9.380001 63.120003 9.380001 c
63.119999 9.38 l
h
60.619999 14.84 m
60.619999 15.8933 60.83334 16.7066 61.259998 17.280001 c
61.686657 17.853401 62.306698 18.140001 63.119999 18.140001 c
63.959999 18.140001 64.589996 17.846661 65.010002 17.260002 c
65.430008 16.673344 65.639999 15.866702 65.639999 14.840002 c
65.639999 13.773302 65.42334 12.953302 64.989998 12.380002 c
64.556656 11.806702 63.926697 11.520002 63.099998 11.520002 c
62.299999 11.520002 61.686699 11.806663 61.259998 12.380002 c
60.833298 12.953342 60.619999 13.773302 60.619999 14.840002 c
60.619999 14.84 l
h
76.360001 9.38 m
76.599998 9.38 76.806679 9.413341 76.980019 9.480001 c
76.980019 12.120001 l
76.673355 12.053341 76.333359 12.020001 75.960022 12.020001 c
74.093323 12.020001 73.160019 13.1267 73.160019 15.34 c
73.160019 20 l
70.320023 20 l
70.320023 9.66 l
73.02002 9.66 l
73.02002 11.58 l
73.06002 11.58 l
73.340019 10.91334 73.783363 10.38 74.390022 9.98 c
74.996681 9.579999 75.65332 9.379999 76.360023 9.379999 c
76.360001 9.38 l
h
86.580002 5.72 m
86.580002 20 l
83.740005 20 l
83.740005 5.72 l
86.580002 5.72 l
86.580002 5.72 l
h
91.739998 5.72 m
91.739998 8.06 l
88.899994 8.06 l
88.899994 5.719999 l
91.73999 5.719999 l
91.739998 5.72 l
h
91.739998 9.66 m
91.739998 20 l
88.899994 20 l
88.899994 9.66 l
91.73999 9.66 l
91.739998 9.66 l
h
98.059998 5.72 m
98.299995 5.72 98.799995 5.74668 99.559998 5.80002 c
99.559998 7.92002 l
99.186661 7.88002 98.846657 7.86002 98.540001 7.86002 c
98.126663 7.86002 97.840004 7.95002 97.68 8.13002 c
97.519997 8.31002 97.440002 8.62002 97.440002 9.06002 c
97.440002 9.660021 l
99.400002 9.660021 l
99.400002 11.56002 l
97.440002 11.56002 l
97.440002 20.000019 l
94.600006 20.000019 l
94.600006 11.56002 l
92.900009 11.56002 l
92.900009 9.660019 l
94.600006 9.660019 l
94.600006 8.900019 l
94.600006 7.886719 94.903343 7.103319 95.51001 6.550019 c
96.116676 5.996719 96.966713 5.720019 98.060013 5.720019 c
98.059998 5.72 l
h
105.419998 9.38 m
106.393341 9.38 107.259995 9.60664 108.019997 10.05998 c
108.779999 10.513321 109.376694 11.16998 109.809998 12.029981 c
110.243301 12.889981 110.459999 13.879981 110.459999 14.999981 c
110.459999 15.106641 110.453339 15.279981 110.440002 15.519981 c
102.980003 15.519981 l
103.00666 16.346641 103.22332 16.989981 103.629982 17.449982 c
104.036644 17.909983 104.659981 18.139982 105.499985 18.139982 c
106.019981 18.139982 106.496643 18.009983 106.929985 17.749983 c
107.363327 17.489983 107.639984 17.173323 107.759987 16.799982 c
110.259987 16.799982 l
109.526649 19.119982 107.913383 20.279982 105.419983 20.279982 c
104.47332 20.266642 103.59668 20.059982 102.789986 19.659981 c
101.983292 19.259979 101.339989 18.636681 100.859985 17.78998 c
100.379982 16.943279 100.139984 15.95998 100.139984 14.83998 c
100.139984 13.78668 100.383324 12.82658 100.869987 11.95998 c
101.356651 11.09338 102.003288 10.44668 102.80999 10.01998 c
103.616692 9.593279 104.486687 9.379979 105.419991 9.379979 c
105.419998 9.38 l
h
107.599998 13.72 m
107.46666 12.94666 107.220001 12.386701 106.860001 12.04 c
106.5 11.693299 105.986664 11.520001 105.32 11.520001 c
104.626663 11.520001 104.080002 11.716661 103.68 12.110001 c
103.279999 12.503341 103.046661 13.040001 102.980003 13.72 c
107.600006 13.72 l
107.599998 13.72 l
h
f
Q
Q
Q
showpage
%%PageTrailer
pdfEndPage
%%Trailer
end
%%DocumentSuppliedResources:
%%EOF
